Fatigue Impairment Prediction Suite (FIPS) • FIPS
…
$ print(TPM.simulation.results)
> ---------
> Model Type: TPM 
> Epoch Value: 5 minutes 
> Simulation duration: 60 hours 
> Time points: 721 
> Parameters used (pvec input): ...[Suppressed for README]...
> For descriptions of these parameters, inspect:  help(FIPS::TPM_make_pvec) 
> ---------
> # A tibble: 721 x 10
>    datetime             time wake_status sim_hours     s     c     w        u   KSS alertness
>    <dttm>              <dbl> <lgl>           <dbl> <dbl> <dbl> <dbl>    <dbl> <dbl>     <dbl>
>  1 2020-05-21 08:00:00  8    TRUE           0       7.96 -1.67 -5.72 -0.00274 10.3       6.28
>  2 2020-05-21 08:05:00  8.08 TRUE           0.0833  7.94 -1.63 -5.04 -0.00549  9.84      6.31
>  3 2020-05-21 08:10:00  8.17 TRUE           0.167   7.93 -1.59 -4.45 -0.00919  9.47      6.33
>  4 2020-05-21 08:15:00  8.25 TRUE           0.25    7.91 -1.55 -3.92 -0.0138   9.14      6.35
>  5 2020-05-21 08:20:00  8.33 TRUE           0.333   7.89 -1.50 -3.46 -0.0194   8.85      6.37
>  6 2020-05-21 08:25:00  8.42 TRUE           0.417   7.88 -1.46 -3.05 -0.0258   8.59      6.39
>  7 2020-05-21 08:30:00  8.5  TRUE           0.5     7.86 -1.42 -2.69 -0.0332   8.36      6.41
>  8 2020-05-21 08:35:00  8.58 TRUE           0.583   7.85 -1.37 -2.37 -0.0415   8.16      6.43
>  9 2020-05-21 08:40:00  8.67 TRUE           0.667   7.83 -1.32 -2.09 -0.0506   7.98      6.46
> 10 2020-05-21 08:45:00  8.75 TRUE           0.75    7.81 -1.28 -1.84 -0.0606   7.82      6.48
> # ... with 711 more rows

$ print(unified.simulation.results)
> ---------
> Model Type: unified 
> Epoch Value: 5 minutes 
> Simulation duration: 60 hours 
> Time points: 721 
> Parameters used (pvec input): ...[Suppressed for README]...
> For descriptions of these parameters, inspect:  help(FIPS::unified_make_pvec) 
> ---------
> # A tibble: 721 x 9
>    datetime             time wake_status sim_hours      s      l     c     w fatigue
>    <dttm>              <dbl> <lgl>           <dbl>  <dbl>  <dbl> <dbl> <dbl>   <dbl>
>  1 2020-05-21 08:00:00  8    TRUE           0      0      0      0.335 1.14     1.38
>  2 2020-05-21 08:05:00  8.08 TRUE           0.0833 0.0502 0.0206 0.320 1.10     1.37
>  3 2020-05-21 08:10:00  8.17 TRUE           0.167  0.100  0.0412 0.305 1.06     1.36
>  4 2020-05-21 08:15:00  8.25 TRUE           0.25   0.150  0.0618 0.291 1.02     1.35
>  5 2020-05-21 08:20:00  8.33 TRUE           0.333  0.200  0.0824 0.276 0.978    1.34
>  6 2020-05-21 08:25:00  8.42 TRUE           0.417  0.250  0.103  0.261 0.941    1.33
>  7 2020-05-21 08:30:00  8.5  TRUE           0.5    0.300  0.123  0.247 0.906    1.32
>  8 2020-05-21 08:35:00  8.58 TRUE           0.583  0.349  0.144  0.232 0.872    1.31
>  9 2020-05-21 08:40:00  8.67 TRUE           0.667  0.399  0.164  0.218 0.839    1.30
> 10 2020-05-21 08:45:00  8.75 TRUE           0.75   0.448  0.185  0.204 0.807    1.29
> # ... with 711 more rows
…
