FIPS Simulation Walkthrough • FIPS
…
# The Continuous FIPS_df dataframe format
# This creates the format ready for simulation
simulated.dataframe = parse_sleeptimes(
  sleeptimes = example.sleeptimes,
  series.start = simulation.start,
  series.end = simulation.end,
  sleep.start.col = "sleep.start",
  sleep.end.col = "sleep.end",
  sleep.id.col = "sleep.id",
  roundvalue = 5)

print(simulated.dataframe)
#> # A tibble: 1,897 x 11
#>    datetime            sleep.id wake_status wake_status_int change_point
#>  * <dttm>                 <dbl> <lgl>                 <int>        <dbl>
#>  1 2018-05-01 07:00:00       NA TRUE                      1            0
#>  2 2018-05-01 07:05:00       NA TRUE                      1            0
#>  3 2018-05-01 07:10:00       NA TRUE                      1            0
#>  4 2018-05-01 07:15:00       NA TRUE                      1            0
#>  5 2018-05-01 07:20:00       NA TRUE                      1            0
#>  6 2018-05-01 07:25:00       NA TRUE                      1            0
#>  7 2018-05-01 07:30:00       NA TRUE                      1            0
#>  8 2018-05-01 07:35:00       NA TRUE                      1            0
#>  9 2018-05-01 07:40:00       NA TRUE                      1            0
#> 10 2018-05-01 07:45:00       NA TRUE                      1            0
#> # ... with 1,887 more rows, and 6 more variables: switch_direction <chr>,
#> #   status_duration <dbl>, total_prev <dbl>, time <dbl>, day <int>,
#> #   sim_hours <dbl>
…
#> ---------
#> Model Type: TPM 
#> Epoch Value: 5 minutes 
#> Simulation duration: 158 hours 
#> Time points: 1897 
#> Parameters used (pvec input):
#>            la            ha             d             g            bl 
#>     2.4000000    14.3000000    -0.0353000    -0.3813564    12.2000000 
#>            Cm            Ca             p            Um            Ua 
#>     0.0000000     2.5000000    16.8000000    -0.5000000     0.5000000 
#>            Wc            Wd            S0 KSS_intercept      KSS_beta 
#>    -5.7200000    -1.5100000     7.9600000    10.6000000    -0.6000000 
#> For descriptions of these parameters, inspect:  help(FIPS::TPM_make_pvec) 
#> ---------
#> # A tibble: 1,897 x 10
#>    datetime             time wake_status sim_hours     s     c     w         u
#>    <dttm>              <dbl> <lgl>           <dbl> <dbl> <dbl> <dbl>     <dbl>
#>  1 2018-05-01 07:00:00  7    TRUE           0       7.96 -2.10 -5.72 -0.0432  
#>  2 2018-05-01 07:05:00  7.08 TRUE           0.0833  7.94 -2.07 -5.04 -0.0348  
#>  3 2018-05-01 07:10:00  7.17 TRUE           0.167   7.93 -2.04 -4.45 -0.0272  
#>  4 2018-05-01 07:15:00  7.25 TRUE           0.25    7.91 -2.00 -3.92 -0.0206  
#>  5 2018-05-01 07:20:00  7.33 TRUE           0.333   7.89 -1.97 -3.46 -0.0149  
#>  6 2018-05-01 07:25:00  7.42 TRUE           0.417   7.88 -1.94 -3.05 -0.0100  
#>  7 2018-05-01 07:30:00  7.5  TRUE           0.5     7.86 -1.90 -2.69 -0.00616 
#>  8 2018-05-01 07:35:00  7.58 TRUE           0.583   7.85 -1.87 -2.37 -0.00321 
#>  9 2018-05-01 07:40:00  7.67 TRUE           0.667   7.83 -1.83 -2.09 -0.00122 
#> 10 2018-05-01 07:45:00  7.75 TRUE           0.75    7.81 -1.79 -1.84 -0.000171
#> # ... with 1,887 more rows, and 2 more variables: KSS <dbl>, alertness <dbl>
…
